%YAML 1.1
%TAG !u! tag:unity3d.com,2011:
--- !u!1 &8938427334159414447
GameObject:
  m_ObjectHideFlags: 0
  m_CorrespondingSourceObject: {fileID: 0}
  m_PrefabInstance: {fileID: 0}
  m_PrefabAsset: {fileID: 0}
  serializedVersion: 6
  m_Component:
  - component: {fileID: 2010973726711035680}
  - component: {fileID: 615198201768104435}
  - component: {fileID: 1308171078425592825}
  m_Layer: 0
  m_Name: PRE_ReverbZone
  m_TagString: Untagged
  m_Icon: {fileID: 0}
  m_NavMeshLayer: 0
  m_StaticEditorFlags: 0
  m_IsActive: 1
--- !u!4 &2010973726711035680
Transform:
  m_ObjectHideFlags: 0
  m_CorrespondingSourceObject: {fileID: 0}
  m_PrefabInstance: {fileID: 0}
  m_PrefabAsset: {fileID: 0}
  m_GameObject: {fileID: 8938427334159414447}
  m_LocalRotation: {x: -0.16391124, y: -0.032437474, z: 0.057190325, w: 0.98428154}
  m_LocalPosition: {x: 1391.5, y: 508.2, z: -2038.6}
  m_LocalScale: {x: 1, y: 1, z: 1}
  m_Children: []
  m_Father: {fileID: 0}
  m_RootOrder: 0
  m_LocalEulerAnglesHint: {x: -18.6, y: -5, z: 7.47}
--- !u!65 &615198201768104435
BoxCollider:
  m_ObjectHideFlags: 0
  m_CorrespondingSourceObject: {fileID: 0}
  m_PrefabInstance: {fileID: 0}
  m_PrefabAsset: {fileID: 0}
  m_GameObject: {fileID: 8938427334159414447}
  m_Material: {fileID: 0}
  m_IsTrigger: 1
  m_Enabled: 1
  serializedVersion: 2
  m_Size: {x: 677.72345, y: 78.701775, z: 151.23843}
  m_Center: {x: 271.68063, y: 20.32695, z: -12.689251}
--- !u!114 &1308171078425592825
MonoBehaviour:
  m_ObjectHideFlags: 0
  m_CorrespondingSourceObject: {fileID: 0}
  m_PrefabInstance: {fileID: 0}
  m_PrefabAsset: {fileID: 0}
  m_GameObject: {fileID: 8938427334159414447}
  m_Enabled: 1
  m_EditorHideFlags: 0
  m_Script: {fileID: 11500000, guid: 72233220b88686f4cba4cc3c3c8f7053, type: 3}
  m_Name: 
  m_EditorClassIdentifier: 
  excludeOthers: 0
  isDefault: 0
  data:
    idInternal: 0
    valueGuidInternal: 
    WwiseObjectReference: {fileID: 11400000, guid: fd5b1e71b245cdd49b0bd3f2535b9d6c,
      type: 2}
  priority: 0
  auxBusIdInternal: 0
  valueGuidInternal: 
