%YAML 1.1
%TAG !u! tag:unity3d.com,2011:
--- !u!1 &4798690627789593989
GameObject:
  m_ObjectHideFlags: 0
  m_CorrespondingSourceObject: {fileID: 0}
  m_PrefabInstance: {fileID: 0}
  m_PrefabAsset: {fileID: 0}
  serializedVersion: 6
  m_Component:
  - component: {fileID: 667624943261459457}
  - component: {fileID: 4805215717833976537}
  m_Layer: 0
  m_Name: PRE_LobbyManager
  m_TagString: Untagged
  m_Icon: {fileID: 0}
  m_NavMeshLayer: 0
  m_StaticEditorFlags: 0
  m_IsActive: 1
--- !u!4 &667624943261459457
Transform:
  m_ObjectHideFlags: 0
  m_CorrespondingSourceObject: {fileID: 0}
  m_PrefabInstance: {fileID: 0}
  m_PrefabAsset: {fileID: 0}
  m_GameObject: {fileID: 4798690627789593989}
  m_LocalRotation: {x: 0, y: 0, z: 0, w: 1}
  m_LocalPosition: {x: 570.2434, y: 263.07706, z: -380.875}
  m_LocalScale: {x: 1, y: 1, z: 1}
  m_Children: []
  m_Father: {fileID: 0}
  m_RootOrder: 0
  m_LocalEulerAnglesHint: {x: 0, y: 0, z: 0}
--- !u!114 &4805215717833976537
MonoBehaviour:
  m_ObjectHideFlags: 0
  m_CorrespondingSourceObject: {fileID: 0}
  m_PrefabInstance: {fileID: 0}
  m_PrefabAsset: {fileID: 0}
  m_GameObject: {fileID: 4798690627789593989}
  m_Enabled: 1
  m_EditorHideFlags: 0
  m_Script: {fileID: 11500000, guid: c2f78fe452a7e044fb92281808ab9858, type: 3}
  m_Name: 
  m_EditorClassIdentifier: 
  _BtnLoginMaster: {fileID: 0}
  _BtnConnectRoom: {fileID: 0}
  _BtnSetName: {fileID: 0}
  _InputField: {fileID: 0}
  _WelcomeText: {fileID: 0}
  _NickNameText: {fileID: 0}
  _WarningText: {fileID: 0}
  _TryConnectToMaster: 0
  _TryConnectToRoom: 0
  _SetNickName: 0
  _TestDrive: 1
