%YAML 1.1
%TAG !u! tag:unity3d.com,2011:
--- !u!1 &3103090523592063963
GameObject:
  m_ObjectHideFlags: 0
  m_CorrespondingSourceObject: {fileID: 0}
  m_PrefabInstance: {fileID: 0}
  m_PrefabAsset: {fileID: 0}
  serializedVersion: 6
  m_Component:
  - component: {fileID: 5787333470374849383}
  - component: {fileID: 6552942195055843731}
  - component: {fileID: 3150632386541870717}
  - component: {fileID: 1201825387705539272}
  m_Layer: 0
  m_Name: PRE_AudioManager
  m_TagString: Untagged
  m_Icon: {fileID: 0}
  m_NavMeshLayer: 0
  m_StaticEditorFlags: 0
  m_IsActive: 1
--- !u!4 &5787333470374849383
Transform:
  m_ObjectHideFlags: 0
  m_CorrespondingSourceObject: {fileID: 0}
  m_PrefabInstance: {fileID: 0}
  m_PrefabAsset: {fileID: 0}
  m_GameObject: {fileID: 3103090523592063963}
  m_LocalRotation: {x: 0, y: 0, z: 0, w: 1}
  m_LocalPosition: {x: 1640.9683, y: 113.3607, z: 1463.3827}
  m_LocalScale: {x: 1, y: 1, z: 1}
  m_Children: []
  m_Father: {fileID: 0}
  m_RootOrder: 0
  m_LocalEulerAnglesHint: {x: 0, y: 0, z: 0}
--- !u!114 &6552942195055843731
MonoBehaviour:
  m_ObjectHideFlags: 0
  m_CorrespondingSourceObject: {fileID: 0}
  m_PrefabInstance: {fileID: 0}
  m_PrefabAsset: {fileID: 0}
  m_GameObject: {fileID: 3103090523592063963}
  m_Enabled: 1
  m_EditorHideFlags: 0
  m_Script: {fileID: 11500000, guid: fc7722fe07d66ee42820e2a2e5971144, type: 3}
  m_Name: 
  m_EditorClassIdentifier: 
  _PlayMusicEvents:
  - Play_MUS_Menu
  - Play_MUS_Credits
  - Play_MUS_Lobby
  - Play_MUS_InGame
  _StopMusicEvents:
  - Stop_MUS_Menu
  - Stop_MUS_Credits
  - Stop_MUS_Lobby
  - Stop_MUS_InGame
--- !u!114 &3150632386541870717
MonoBehaviour:
  m_ObjectHideFlags: 0
  m_CorrespondingSourceObject: {fileID: 0}
  m_PrefabInstance: {fileID: 0}
  m_PrefabAsset: {fileID: 0}
  m_GameObject: {fileID: 3103090523592063963}
  m_Enabled: 1
  m_EditorHideFlags: 0
  m_Script: {fileID: 11500000, guid: 41409ef5f3888a744b3fc24faf933125, type: 3}
  m_Name: 
  m_EditorClassIdentifier: 
  _IsMainMenu: 1
  _IsLobbyPlay: 0
  _IsRacePlay: 0
--- !u!114 &1201825387705539272
MonoBehaviour:
  m_ObjectHideFlags: 0
  m_CorrespondingSourceObject: {fileID: 0}
  m_PrefabInstance: {fileID: 0}
  m_PrefabAsset: {fileID: 0}
  m_GameObject: {fileID: 3103090523592063963}
  m_Enabled: 1
  m_EditorHideFlags: 0
  m_Script: {fileID: 11500000, guid: 33d952ba2cbd7ff4fb5ad9ed90cc7594, type: 3}
  m_Name: 
  m_EditorClassIdentifier: 
  _CancelSFX: Play_UI_Cancel
  _ConfirmSFX: Play_UI_Confirm
  _FailSFX: Play_UI_Fail
  _SelectSFX: Play_UI_Select
  _SliderBackSFX: Play_UI_Slider_Back
  _SliderForwardSFX: Play_UI_Slider_Forward
