fileFormatVersion: 2
guid: 20a03651a6e448245b67a90eec5e6e99
ScriptedImporter:
  internalIDToNameTable: []
  externalObjects: {}
  serializedVersion: 2
  userData: 
  assetBundleName: 
  assetBundleVariant: 
  script: {fileID: 11500000, guid: 625f186215c104763be7675aa2d941aa, type: 3}
