%YAML 1.1
%TAG !u! tag:unity3d.com,2011:
--- !u!1001 &589184654866267463
PrefabInstance:
  m_ObjectHideFlags: 0
  serializedVersion: 2
  m_Modification:
    m_TransformParent: {fileID: 0}
    m_Modifications:
    - target: {fileID: 1524372553160676197, guid: ec3521d2e1376464c864057ad3500d77,
        type: 3}
      propertyPath: m_Name
      value: NET_ZeroChaser_V2_04
      objectReference: {fileID: 0}
    - target: {fileID: 4421728540065686744, guid: ec3521d2e1376464c864057ad3500d77,
        type: 3}
      propertyPath: m_LocalPosition.x
      value: 0
      objectReference: {fileID: 0}
    - target: {fileID: 4421728540065686744, guid: ec3521d2e1376464c864057ad3500d77,
        type: 3}
      propertyPath: m_LocalPosition.y
      value: 0
      objectReference: {fileID: 0}
    - target: {fileID: 4421728540065686744, guid: ec3521d2e1376464c864057ad3500d77,
        type: 3}
      propertyPath: m_LocalPosition.z
      value: 0
      objectReference: {fileID: 0}
    - target: {fileID: 4421728540065686744, guid: ec3521d2e1376464c864057ad3500d77,
        type: 3}
      propertyPath: m_LocalRotation.x
      value: 0
      objectReference: {fileID: 0}
    - target: {fileID: 4421728540065686744, guid: ec3521d2e1376464c864057ad3500d77,
        type: 3}
      propertyPath: m_LocalRotation.y
      value: 0
      objectReference: {fileID: 0}
    - target: {fileID: 4421728540065686744, guid: ec3521d2e1376464c864057ad3500d77,
        type: 3}
      propertyPath: m_LocalRotation.z
      value: 0
      objectReference: {fileID: 0}
    - target: {fileID: 4421728540065686744, guid: ec3521d2e1376464c864057ad3500d77,
        type: 3}
      propertyPath: m_LocalRotation.w
      value: 1
      objectReference: {fileID: 0}
    - target: {fileID: 4421728540065686744, guid: ec3521d2e1376464c864057ad3500d77,
        type: 3}
      propertyPath: m_RootOrder
      value: 0
      objectReference: {fileID: 0}
    - target: {fileID: 4421728540065686744, guid: ec3521d2e1376464c864057ad3500d77,
        type: 3}
      propertyPath: m_LocalEulerAnglesHint.x
      value: 0
      objectReference: {fileID: 0}
    - target: {fileID: 4421728540065686744, guid: ec3521d2e1376464c864057ad3500d77,
        type: 3}
      propertyPath: m_LocalEulerAnglesHint.y
      value: 0
      objectReference: {fileID: 0}
    - target: {fileID: 4421728540065686744, guid: ec3521d2e1376464c864057ad3500d77,
        type: 3}
      propertyPath: m_LocalEulerAnglesHint.z
      value: 0
      objectReference: {fileID: 0}
    m_RemovedComponents: []
  m_SourcePrefab: {fileID: 100100000, guid: ec3521d2e1376464c864057ad3500d77, type: 3}
