%YAML 1.1
%TAG !u! tag:unity3d.com,2011:
--- !u!1001 &6730755138686276433
PrefabInstance:
  m_ObjectHideFlags: 0
  serializedVersion: 2
  m_Modification:
    m_TransformParent: {fileID: 0}
    m_Modifications:
    - target: {fileID: 3426260697016110312, guid: 0c7e836a1ae33b14496c156d2106bbef,
        type: 3}
      propertyPath: m_Name
      value: NET_HoverBike_01
      objectReference: {fileID: 0}
    - target: {fileID: 300877206028591070, guid: 0c7e836a1ae33b14496c156d2106bbef,
        type: 3}
      propertyPath: m_LocalPosition.x
      value: 0
      objectReference: {fileID: 0}
    - target: {fileID: 300877206028591070, guid: 0c7e836a1ae33b14496c156d2106bbef,
        type: 3}
      propertyPath: m_LocalPosition.y
      value: 0
      objectReference: {fileID: 0}
    - target: {fileID: 300877206028591070, guid: 0c7e836a1ae33b14496c156d2106bbef,
        type: 3}
      propertyPath: m_LocalPosition.z
      value: 0
      objectReference: {fileID: 0}
    - target: {fileID: 300877206028591070, guid: 0c7e836a1ae33b14496c156d2106bbef,
        type: 3}
      propertyPath: m_LocalRotation.x
      value: 0
      objectReference: {fileID: 0}
    - target: {fileID: 300877206028591070, guid: 0c7e836a1ae33b14496c156d2106bbef,
        type: 3}
      propertyPath: m_LocalRotation.y
      value: 0
      objectReference: {fileID: 0}
    - target: {fileID: 300877206028591070, guid: 0c7e836a1ae33b14496c156d2106bbef,
        type: 3}
      propertyPath: m_LocalRotation.z
      value: 0
      objectReference: {fileID: 0}
    - target: {fileID: 300877206028591070, guid: 0c7e836a1ae33b14496c156d2106bbef,
        type: 3}
      propertyPath: m_LocalRotation.w
      value: 1
      objectReference: {fileID: 0}
    - target: {fileID: 300877206028591070, guid: 0c7e836a1ae33b14496c156d2106bbef,
        type: 3}
      propertyPath: m_RootOrder
      value: 0
      objectReference: {fileID: 0}
    - target: {fileID: 300877206028591070, guid: 0c7e836a1ae33b14496c156d2106bbef,
        type: 3}
      propertyPath: m_LocalEulerAnglesHint.x
      value: 0
      objectReference: {fileID: 0}
    - target: {fileID: 300877206028591070, guid: 0c7e836a1ae33b14496c156d2106bbef,
        type: 3}
      propertyPath: m_LocalEulerAnglesHint.y
      value: 0
      objectReference: {fileID: 0}
    - target: {fileID: 300877206028591070, guid: 0c7e836a1ae33b14496c156d2106bbef,
        type: 3}
      propertyPath: m_LocalEulerAnglesHint.z
      value: 0
      objectReference: {fileID: 0}
    m_RemovedComponents: []
  m_SourcePrefab: {fileID: 100100000, guid: 0c7e836a1ae33b14496c156d2106bbef, type: 3}
