%YAML 1.1
%TAG !u! tag:unity3d.com,2011:
--- !u!1001 &2884598883706914716
PrefabInstance:
  m_ObjectHideFlags: 0
  serializedVersion: 2
  m_Modification:
    m_TransformParent: {fileID: 0}
    m_Modifications:
    - target: {fileID: 7820668270745184021, guid: b31453fafe768ce42b7b29ba29ebe5a0,
        type: 3}
      propertyPath: m_Name
      value: PRE_ZeroChaser_V1_03
      objectReference: {fileID: 0}
    - target: {fileID: 2640169361561781899, guid: b31453fafe768ce42b7b29ba29ebe5a0,
        type: 3}
      propertyPath: m_LocalPosition.x
      value: 0
      objectReference: {fileID: 0}
    - target: {fileID: 2640169361561781899, guid: b31453fafe768ce42b7b29ba29ebe5a0,
        type: 3}
      propertyPath: m_LocalPosition.y
      value: 0
      objectReference: {fileID: 0}
    - target: {fileID: 2640169361561781899, guid: b31453fafe768ce42b7b29ba29ebe5a0,
        type: 3}
      propertyPath: m_LocalPosition.z
      value: 0
      objectReference: {fileID: 0}
    - target: {fileID: 2640169361561781899, guid: b31453fafe768ce42b7b29ba29ebe5a0,
        type: 3}
      propertyPath: m_LocalRotation.x
      value: 0
      objectReference: {fileID: 0}
    - target: {fileID: 2640169361561781899, guid: b31453fafe768ce42b7b29ba29ebe5a0,
        type: 3}
      propertyPath: m_LocalRotation.y
      value: 0
      objectReference: {fileID: 0}
    - target: {fileID: 2640169361561781899, guid: b31453fafe768ce42b7b29ba29ebe5a0,
        type: 3}
      propertyPath: m_LocalRotation.z
      value: 0
      objectReference: {fileID: 0}
    - target: {fileID: 2640169361561781899, guid: b31453fafe768ce42b7b29ba29ebe5a0,
        type: 3}
      propertyPath: m_LocalRotation.w
      value: 1
      objectReference: {fileID: 0}
    - target: {fileID: 2640169361561781899, guid: b31453fafe768ce42b7b29ba29ebe5a0,
        type: 3}
      propertyPath: m_RootOrder
      value: 0
      objectReference: {fileID: 0}
    - target: {fileID: 2640169361561781899, guid: b31453fafe768ce42b7b29ba29ebe5a0,
        type: 3}
      propertyPath: m_LocalEulerAnglesHint.x
      value: 0
      objectReference: {fileID: 0}
    - target: {fileID: 2640169361561781899, guid: b31453fafe768ce42b7b29ba29ebe5a0,
        type: 3}
      propertyPath: m_LocalEulerAnglesHint.y
      value: 0
      objectReference: {fileID: 0}
    - target: {fileID: 2640169361561781899, guid: b31453fafe768ce42b7b29ba29ebe5a0,
        type: 3}
      propertyPath: m_LocalEulerAnglesHint.z
      value: 0
      objectReference: {fileID: 0}
    m_RemovedComponents: []
  m_SourcePrefab: {fileID: 100100000, guid: b31453fafe768ce42b7b29ba29ebe5a0, type: 3}
