%YAML 1.1
%TAG !u! tag:unity3d.com,2011:
--- !u!1 &5726037032949728351
GameObject:
  m_ObjectHideFlags: 0
  m_CorrespondingSourceObject: {fileID: 0}
  m_PrefabInstance: {fileID: 0}
  m_PrefabAsset: {fileID: 0}
  serializedVersion: 6
  m_Component:
  - component: {fileID: 2802414338253860912}
  m_Layer: 0
  m_Name: PRE_Ramp25DX2
  m_TagString: Untagged
  m_Icon: {fileID: 0}
  m_NavMeshLayer: 0
  m_StaticEditorFlags: 4294967295
  m_IsActive: 1
--- !u!4 &2802414338253860912
Transform:
  m_ObjectHideFlags: 0
  m_CorrespondingSourceObject: {fileID: 0}
  m_PrefabInstance: {fileID: 0}
  m_PrefabAsset: {fileID: 0}
  m_GameObject: {fileID: 5726037032949728351}
  m_LocalRotation: {x: 0, y: 0, z: 0, w: 1}
  m_LocalPosition: {x: 0, y: 0, z: 0}
  m_LocalScale: {x: 1, y: 1, z: 1}
  m_Children:
  - {fileID: 8899190906274625342}
  - {fileID: 5111113789008876256}
  m_Father: {fileID: 0}
  m_RootOrder: 0
  m_LocalEulerAnglesHint: {x: 0, y: 0, z: 0}
--- !u!1001 &5595959874607446498
PrefabInstance:
  m_ObjectHideFlags: 0
  serializedVersion: 2
  m_Modification:
    m_TransformParent: {fileID: 2802414338253860912}
    m_Modifications:
    - target: {fileID: 4403918911720888593, guid: d6256c1eb1ce36a459073d0fdc6f6dfd,
        type: 3}
      propertyPath: m_Name
      value: PRE_Ramp25D (1)
      objectReference: {fileID: 0}
    - target: {fileID: 812483233641491202, guid: d6256c1eb1ce36a459073d0fdc6f6dfd,
        type: 3}
      propertyPath: m_LocalPosition.x
      value: -10
      objectReference: {fileID: 0}
    - target: {fileID: 812483233641491202, guid: d6256c1eb1ce36a459073d0fdc6f6dfd,
        type: 3}
      propertyPath: m_LocalPosition.y
      value: 0
      objectReference: {fileID: 0}
    - target: {fileID: 812483233641491202, guid: d6256c1eb1ce36a459073d0fdc6f6dfd,
        type: 3}
      propertyPath: m_LocalPosition.z
      value: 0
      objectReference: {fileID: 0}
    - target: {fileID: 812483233641491202, guid: d6256c1eb1ce36a459073d0fdc6f6dfd,
        type: 3}
      propertyPath: m_LocalRotation.x
      value: -0
      objectReference: {fileID: 0}
    - target: {fileID: 812483233641491202, guid: d6256c1eb1ce36a459073d0fdc6f6dfd,
        type: 3}
      propertyPath: m_LocalRotation.y
      value: -0
      objectReference: {fileID: 0}
    - target: {fileID: 812483233641491202, guid: d6256c1eb1ce36a459073d0fdc6f6dfd,
        type: 3}
      propertyPath: m_LocalRotation.z
      value: -0
      objectReference: {fileID: 0}
    - target: {fileID: 812483233641491202, guid: d6256c1eb1ce36a459073d0fdc6f6dfd,
        type: 3}
      propertyPath: m_LocalRotation.w
      value: 1
      objectReference: {fileID: 0}
    - target: {fileID: 812483233641491202, guid: d6256c1eb1ce36a459073d0fdc6f6dfd,
        type: 3}
      propertyPath: m_RootOrder
      value: 1
      objectReference: {fileID: 0}
    - target: {fileID: 812483233641491202, guid: d6256c1eb1ce36a459073d0fdc6f6dfd,
        type: 3}
      propertyPath: m_LocalEulerAnglesHint.x
      value: 0
      objectReference: {fileID: 0}
    - target: {fileID: 812483233641491202, guid: d6256c1eb1ce36a459073d0fdc6f6dfd,
        type: 3}
      propertyPath: m_LocalEulerAnglesHint.y
      value: 0
      objectReference: {fileID: 0}
    - target: {fileID: 812483233641491202, guid: d6256c1eb1ce36a459073d0fdc6f6dfd,
        type: 3}
      propertyPath: m_LocalEulerAnglesHint.z
      value: 0
      objectReference: {fileID: 0}
    m_RemovedComponents: []
  m_SourcePrefab: {fileID: 100100000, guid: d6256c1eb1ce36a459073d0fdc6f6dfd, type: 3}
--- !u!4 &5111113789008876256 stripped
Transform:
  m_CorrespondingSourceObject: {fileID: 812483233641491202, guid: d6256c1eb1ce36a459073d0fdc6f6dfd,
    type: 3}
  m_PrefabInstance: {fileID: 5595959874607446498}
  m_PrefabAsset: {fileID: 0}
--- !u!1001 &8126397843742907452
PrefabInstance:
  m_ObjectHideFlags: 0
  serializedVersion: 2
  m_Modification:
    m_TransformParent: {fileID: 2802414338253860912}
    m_Modifications:
    - target: {fileID: 4403918911720888593, guid: d6256c1eb1ce36a459073d0fdc6f6dfd,
        type: 3}
      propertyPath: m_Name
      value: PRE_Ramp25D
      objectReference: {fileID: 0}
    - target: {fileID: 812483233641491202, guid: d6256c1eb1ce36a459073d0fdc6f6dfd,
        type: 3}
      propertyPath: m_LocalPosition.x
      value: 10
      objectReference: {fileID: 0}
    - target: {fileID: 812483233641491202, guid: d6256c1eb1ce36a459073d0fdc6f6dfd,
        type: 3}
      propertyPath: m_LocalPosition.y
      value: 0
      objectReference: {fileID: 0}
    - target: {fileID: 812483233641491202, guid: d6256c1eb1ce36a459073d0fdc6f6dfd,
        type: 3}
      propertyPath: m_LocalPosition.z
      value: 0
      objectReference: {fileID: 0}
    - target: {fileID: 812483233641491202, guid: d6256c1eb1ce36a459073d0fdc6f6dfd,
        type: 3}
      propertyPath: m_LocalRotation.x
      value: -0
      objectReference: {fileID: 0}
    - target: {fileID: 812483233641491202, guid: d6256c1eb1ce36a459073d0fdc6f6dfd,
        type: 3}
      propertyPath: m_LocalRotation.y
      value: -0
      objectReference: {fileID: 0}
    - target: {fileID: 812483233641491202, guid: d6256c1eb1ce36a459073d0fdc6f6dfd,
        type: 3}
      propertyPath: m_LocalRotation.z
      value: -0
      objectReference: {fileID: 0}
    - target: {fileID: 812483233641491202, guid: d6256c1eb1ce36a459073d0fdc6f6dfd,
        type: 3}
      propertyPath: m_LocalRotation.w
      value: 1
      objectReference: {fileID: 0}
    - target: {fileID: 812483233641491202, guid: d6256c1eb1ce36a459073d0fdc6f6dfd,
        type: 3}
      propertyPath: m_RootOrder
      value: 0
      objectReference: {fileID: 0}
    - target: {fileID: 812483233641491202, guid: d6256c1eb1ce36a459073d0fdc6f6dfd,
        type: 3}
      propertyPath: m_LocalEulerAnglesHint.x
      value: 0
      objectReference: {fileID: 0}
    - target: {fileID: 812483233641491202, guid: d6256c1eb1ce36a459073d0fdc6f6dfd,
        type: 3}
      propertyPath: m_LocalEulerAnglesHint.y
      value: 0
      objectReference: {fileID: 0}
    - target: {fileID: 812483233641491202, guid: d6256c1eb1ce36a459073d0fdc6f6dfd,
        type: 3}
      propertyPath: m_LocalEulerAnglesHint.z
      value: 0
      objectReference: {fileID: 0}
    m_RemovedComponents: []
  m_SourcePrefab: {fileID: 100100000, guid: d6256c1eb1ce36a459073d0fdc6f6dfd, type: 3}
--- !u!4 &8899190906274625342 stripped
Transform:
  m_CorrespondingSourceObject: {fileID: 812483233641491202, guid: d6256c1eb1ce36a459073d0fdc6f6dfd,
    type: 3}
  m_PrefabInstance: {fileID: 8126397843742907452}
  m_PrefabAsset: {fileID: 0}
