%YAML 1.1
%TAG !u! tag:unity3d.com,2011:
--- !u!1 &7214592028474830173
GameObject:
  m_ObjectHideFlags: 0
  m_CorrespondingSourceObject: {fileID: 0}
  m_PrefabInstance: {fileID: 0}
  m_PrefabAsset: {fileID: 0}
  serializedVersion: 6
  m_Component:
  - component: {fileID: 1337054682103317208}
  m_Layer: 0
  m_Name: PRE_Zero_fighter_animated
  m_TagString: Untagged
  m_Icon: {fileID: 0}
  m_NavMeshLayer: 0
  m_StaticEditorFlags: 0
  m_IsActive: 1
--- !u!4 &1337054682103317208
Transform:
  m_ObjectHideFlags: 0
  m_CorrespondingSourceObject: {fileID: 0}
  m_PrefabInstance: {fileID: 0}
  m_PrefabAsset: {fileID: 0}
  m_GameObject: {fileID: 7214592028474830173}
  m_LocalRotation: {x: 0, y: 0, z: 0, w: 1}
  m_LocalPosition: {x: 0, y: 0, z: 0}
  m_LocalScale: {x: 1, y: 1, z: 1}
  m_Children:
  - {fileID: 6861618876064662656}
  m_Father: {fileID: 0}
  m_RootOrder: 0
  m_LocalEulerAnglesHint: {x: 0, y: 0, z: 0}
--- !u!1001 &1961071383435501113
PrefabInstance:
  m_ObjectHideFlags: 0
  serializedVersion: 2
  m_Modification:
    m_TransformParent: {fileID: 1337054682103317208}
    m_Modifications:
    - target: {fileID: 8238534884574800042, guid: 349a98e185dea844b9d5a494eb584964,
        type: 3}
      propertyPath: m_Name
      value: PRE_ZeroFighter
      objectReference: {fileID: 0}
    - target: {fileID: 4903995630485527225, guid: 349a98e185dea844b9d5a494eb584964,
        type: 3}
      propertyPath: m_LocalPosition.x
      value: 0
      objectReference: {fileID: 0}
    - target: {fileID: 4903995630485527225, guid: 349a98e185dea844b9d5a494eb584964,
        type: 3}
      propertyPath: m_LocalPosition.y
      value: 0
      objectReference: {fileID: 0}
    - target: {fileID: 4903995630485527225, guid: 349a98e185dea844b9d5a494eb584964,
        type: 3}
      propertyPath: m_LocalPosition.z
      value: 0
      objectReference: {fileID: 0}
    - target: {fileID: 4903995630485527225, guid: 349a98e185dea844b9d5a494eb584964,
        type: 3}
      propertyPath: m_LocalRotation.x
      value: -0
      objectReference: {fileID: 0}
    - target: {fileID: 4903995630485527225, guid: 349a98e185dea844b9d5a494eb584964,
        type: 3}
      propertyPath: m_LocalRotation.y
      value: -0
      objectReference: {fileID: 0}
    - target: {fileID: 4903995630485527225, guid: 349a98e185dea844b9d5a494eb584964,
        type: 3}
      propertyPath: m_LocalRotation.z
      value: -0
      objectReference: {fileID: 0}
    - target: {fileID: 4903995630485527225, guid: 349a98e185dea844b9d5a494eb584964,
        type: 3}
      propertyPath: m_LocalRotation.w
      value: 1
      objectReference: {fileID: 0}
    - target: {fileID: 4903995630485527225, guid: 349a98e185dea844b9d5a494eb584964,
        type: 3}
      propertyPath: m_RootOrder
      value: 0
      objectReference: {fileID: 0}
    - target: {fileID: 4903995630485527225, guid: 349a98e185dea844b9d5a494eb584964,
        type: 3}
      propertyPath: m_LocalEulerAnglesHint.x
      value: 0
      objectReference: {fileID: 0}
    - target: {fileID: 4903995630485527225, guid: 349a98e185dea844b9d5a494eb584964,
        type: 3}
      propertyPath: m_LocalEulerAnglesHint.y
      value: 0
      objectReference: {fileID: 0}
    - target: {fileID: 4903995630485527225, guid: 349a98e185dea844b9d5a494eb584964,
        type: 3}
      propertyPath: m_LocalEulerAnglesHint.z
      value: 0
      objectReference: {fileID: 0}
    m_RemovedComponents:
    - {fileID: 5339675439620759729, guid: 349a98e185dea844b9d5a494eb584964, type: 3}
  m_SourcePrefab: {fileID: 100100000, guid: 349a98e185dea844b9d5a494eb584964, type: 3}
--- !u!4 &6861618876064662656 stripped
Transform:
  m_CorrespondingSourceObject: {fileID: 4903995630485527225, guid: 349a98e185dea844b9d5a494eb584964,
    type: 3}
  m_PrefabInstance: {fileID: 1961071383435501113}
  m_PrefabAsset: {fileID: 0}
