%YAML 1.1
%TAG !u! tag:unity3d.com,2011:
--- !u!1 &1207895551966129540
GameObject:
  m_ObjectHideFlags: 0
  m_CorrespondingSourceObject: {fileID: 0}
  m_PrefabInstance: {fileID: 0}
  m_PrefabAsset: {fileID: 0}
  serializedVersion: 6
  m_Component:
  - component: {fileID: 5021733696315154121}
  m_Layer: 0
  m_Name: PRE_CylinderLight01_03x2_03
  m_TagString: Untagged
  m_Icon: {fileID: 0}
  m_NavMeshLayer: 0
  m_StaticEditorFlags: 0
  m_IsActive: 1
--- !u!4 &5021733696315154121
Transform:
  m_ObjectHideFlags: 0
  m_CorrespondingSourceObject: {fileID: 0}
  m_PrefabInstance: {fileID: 0}
  m_PrefabAsset: {fileID: 0}
  m_GameObject: {fileID: 1207895551966129540}
  m_LocalRotation: {x: 0, y: 0, z: 0, w: 1}
  m_LocalPosition: {x: 0, y: 0, z: 0}
  m_LocalScale: {x: 1, y: 1, z: 1}
  m_Children:
  - {fileID: 2909883098530608349}
  - {fileID: 9207129843413887268}
  m_Father: {fileID: 0}
  m_RootOrder: 0
  m_LocalEulerAnglesHint: {x: 0, y: 0, z: 0}
--- !u!1001 &1645419790874849092
PrefabInstance:
  m_ObjectHideFlags: 0
  serializedVersion: 2
  m_Modification:
    m_TransformParent: {fileID: 5021733696315154121}
    m_Modifications:
    - target: {fileID: 6865920716575732851, guid: a44cc521e70f3c54486f64035fe6d996,
        type: 3}
      propertyPath: m_Name
      value: PRE_CylinderLight01_03 (1)
      objectReference: {fileID: 0}
    - target: {fileID: 7571676166338840160, guid: a44cc521e70f3c54486f64035fe6d996,
        type: 3}
      propertyPath: m_LocalPosition.x
      value: 55
      objectReference: {fileID: 0}
    - target: {fileID: 7571676166338840160, guid: a44cc521e70f3c54486f64035fe6d996,
        type: 3}
      propertyPath: m_LocalPosition.y
      value: 0
      objectReference: {fileID: 0}
    - target: {fileID: 7571676166338840160, guid: a44cc521e70f3c54486f64035fe6d996,
        type: 3}
      propertyPath: m_LocalPosition.z
      value: 0
      objectReference: {fileID: 0}
    - target: {fileID: 7571676166338840160, guid: a44cc521e70f3c54486f64035fe6d996,
        type: 3}
      propertyPath: m_LocalRotation.x
      value: 0
      objectReference: {fileID: 0}
    - target: {fileID: 7571676166338840160, guid: a44cc521e70f3c54486f64035fe6d996,
        type: 3}
      propertyPath: m_LocalRotation.y
      value: -0.7071068
      objectReference: {fileID: 0}
    - target: {fileID: 7571676166338840160, guid: a44cc521e70f3c54486f64035fe6d996,
        type: 3}
      propertyPath: m_LocalRotation.z
      value: 0
      objectReference: {fileID: 0}
    - target: {fileID: 7571676166338840160, guid: a44cc521e70f3c54486f64035fe6d996,
        type: 3}
      propertyPath: m_LocalRotation.w
      value: 0.7071068
      objectReference: {fileID: 0}
    - target: {fileID: 7571676166338840160, guid: a44cc521e70f3c54486f64035fe6d996,
        type: 3}
      propertyPath: m_RootOrder
      value: 1
      objectReference: {fileID: 0}
    - target: {fileID: 7571676166338840160, guid: a44cc521e70f3c54486f64035fe6d996,
        type: 3}
      propertyPath: m_LocalEulerAnglesHint.x
      value: 0
      objectReference: {fileID: 0}
    - target: {fileID: 7571676166338840160, guid: a44cc521e70f3c54486f64035fe6d996,
        type: 3}
      propertyPath: m_LocalEulerAnglesHint.y
      value: -90
      objectReference: {fileID: 0}
    - target: {fileID: 7571676166338840160, guid: a44cc521e70f3c54486f64035fe6d996,
        type: 3}
      propertyPath: m_LocalEulerAnglesHint.z
      value: 0
      objectReference: {fileID: 0}
    m_RemovedComponents: []
  m_SourcePrefab: {fileID: 100100000, guid: a44cc521e70f3c54486f64035fe6d996, type: 3}
--- !u!4 &9207129843413887268 stripped
Transform:
  m_CorrespondingSourceObject: {fileID: 7571676166338840160, guid: a44cc521e70f3c54486f64035fe6d996,
    type: 3}
  m_PrefabInstance: {fileID: 1645419790874849092}
  m_PrefabAsset: {fileID: 0}
--- !u!1001 &4715836267667878589
PrefabInstance:
  m_ObjectHideFlags: 0
  serializedVersion: 2
  m_Modification:
    m_TransformParent: {fileID: 5021733696315154121}
    m_Modifications:
    - target: {fileID: 6865920716575732851, guid: a44cc521e70f3c54486f64035fe6d996,
        type: 3}
      propertyPath: m_Name
      value: PRE_CylinderLight01_03
      objectReference: {fileID: 0}
    - target: {fileID: 7571676166338840160, guid: a44cc521e70f3c54486f64035fe6d996,
        type: 3}
      propertyPath: m_LocalPosition.x
      value: 0
      objectReference: {fileID: 0}
    - target: {fileID: 7571676166338840160, guid: a44cc521e70f3c54486f64035fe6d996,
        type: 3}
      propertyPath: m_LocalPosition.y
      value: 0
      objectReference: {fileID: 0}
    - target: {fileID: 7571676166338840160, guid: a44cc521e70f3c54486f64035fe6d996,
        type: 3}
      propertyPath: m_LocalPosition.z
      value: 0
      objectReference: {fileID: 0}
    - target: {fileID: 7571676166338840160, guid: a44cc521e70f3c54486f64035fe6d996,
        type: 3}
      propertyPath: m_LocalRotation.x
      value: 0
      objectReference: {fileID: 0}
    - target: {fileID: 7571676166338840160, guid: a44cc521e70f3c54486f64035fe6d996,
        type: 3}
      propertyPath: m_LocalRotation.y
      value: 0.7071068
      objectReference: {fileID: 0}
    - target: {fileID: 7571676166338840160, guid: a44cc521e70f3c54486f64035fe6d996,
        type: 3}
      propertyPath: m_LocalRotation.z
      value: 0
      objectReference: {fileID: 0}
    - target: {fileID: 7571676166338840160, guid: a44cc521e70f3c54486f64035fe6d996,
        type: 3}
      propertyPath: m_LocalRotation.w
      value: 0.7071068
      objectReference: {fileID: 0}
    - target: {fileID: 7571676166338840160, guid: a44cc521e70f3c54486f64035fe6d996,
        type: 3}
      propertyPath: m_RootOrder
      value: 0
      objectReference: {fileID: 0}
    - target: {fileID: 7571676166338840160, guid: a44cc521e70f3c54486f64035fe6d996,
        type: 3}
      propertyPath: m_LocalEulerAnglesHint.x
      value: 0
      objectReference: {fileID: 0}
    - target: {fileID: 7571676166338840160, guid: a44cc521e70f3c54486f64035fe6d996,
        type: 3}
      propertyPath: m_LocalEulerAnglesHint.y
      value: 90
      objectReference: {fileID: 0}
    - target: {fileID: 7571676166338840160, guid: a44cc521e70f3c54486f64035fe6d996,
        type: 3}
      propertyPath: m_LocalEulerAnglesHint.z
      value: 0
      objectReference: {fileID: 0}
    m_RemovedComponents: []
  m_SourcePrefab: {fileID: 100100000, guid: a44cc521e70f3c54486f64035fe6d996, type: 3}
--- !u!4 &2909883098530608349 stripped
Transform:
  m_CorrespondingSourceObject: {fileID: 7571676166338840160, guid: a44cc521e70f3c54486f64035fe6d996,
    type: 3}
  m_PrefabInstance: {fileID: 4715836267667878589}
  m_PrefabAsset: {fileID: 0}
