%YAML 1.1
%TAG !u! tag:unity3d.com,2011:
--- !u!64 &4960337494736839068
MeshCollider:
  m_ObjectHideFlags: 0
  m_CorrespondingSourceObject: {fileID: 0}
  m_PrefabInstance: {fileID: 0}
  m_PrefabAsset: {fileID: 0}
  m_GameObject: {fileID: 6966412787086125645}
  m_Material: {fileID: 0}
  m_IsTrigger: 0
  m_Enabled: 1
  serializedVersion: 3
  m_Convex: 0
  m_CookingOptions: 14
  m_Mesh: {fileID: -4735356160869378939, guid: 46aef197c33666e4b9a4106c53093326, type: 3}
--- !u!1 &6335498649844810591
GameObject:
  m_ObjectHideFlags: 0
  m_CorrespondingSourceObject: {fileID: 0}
  m_PrefabInstance: {fileID: 0}
  m_PrefabAsset: {fileID: 0}
  serializedVersion: 6
  m_Component:
  - component: {fileID: 8164227613137979878}
  m_Layer: 0
  m_Name: PRE_BuildingTest_06
  m_TagString: Untagged
  m_Icon: {fileID: 0}
  m_NavMeshLayer: 0
  m_StaticEditorFlags: 4294967295
  m_IsActive: 1
--- !u!4 &8164227613137979878
Transform:
  m_ObjectHideFlags: 0
  m_CorrespondingSourceObject: {fileID: 0}
  m_PrefabInstance: {fileID: 0}
  m_PrefabAsset: {fileID: 0}
  m_GameObject: {fileID: 6335498649844810591}
  m_LocalRotation: {x: -0, y: -0, z: -0, w: 1}
  m_LocalPosition: {x: 0, y: 0, z: 0}
  m_LocalScale: {x: 400, y: 400, z: 400}
  m_Children:
  - {fileID: 6266462416043186270}
  m_Father: {fileID: 0}
  m_RootOrder: 0
  m_LocalEulerAnglesHint: {x: 0, y: 0, z: 0}
--- !u!1001 &1408578381759296324
PrefabInstance:
  m_ObjectHideFlags: 0
  serializedVersion: 2
  m_Modification:
    m_TransformParent: {fileID: 8164227613137979878}
    m_Modifications:
    - target: {fileID: -927199367670048503, guid: 46aef197c33666e4b9a4106c53093326,
        type: 3}
      propertyPath: m_Name
      value: MOD_BuildingTest_06
      objectReference: {fileID: 0}
    - target: {fileID: -927199367670048503, guid: 46aef197c33666e4b9a4106c53093326,
        type: 3}
      propertyPath: m_StaticEditorFlags
      value: 4294967295
      objectReference: {fileID: 0}
    - target: {fileID: -1504981713932161579, guid: 46aef197c33666e4b9a4106c53093326,
        type: 3}
      propertyPath: m_Materials.Array.data[0]
      value: 
      objectReference: {fileID: 2100000, guid: d6fe0becff7ade64eb6628615ab464e5, type: 2}
    - target: {fileID: -4216859302048453862, guid: 46aef197c33666e4b9a4106c53093326,
        type: 3}
      propertyPath: m_LocalPosition.x
      value: 0
      objectReference: {fileID: 0}
    - target: {fileID: -4216859302048453862, guid: 46aef197c33666e4b9a4106c53093326,
        type: 3}
      propertyPath: m_LocalPosition.y
      value: 0
      objectReference: {fileID: 0}
    - target: {fileID: -4216859302048453862, guid: 46aef197c33666e4b9a4106c53093326,
        type: 3}
      propertyPath: m_LocalPosition.z
      value: 0
      objectReference: {fileID: 0}
    - target: {fileID: -4216859302048453862, guid: 46aef197c33666e4b9a4106c53093326,
        type: 3}
      propertyPath: m_LocalRotation.x
      value: -0
      objectReference: {fileID: 0}
    - target: {fileID: -4216859302048453862, guid: 46aef197c33666e4b9a4106c53093326,
        type: 3}
      propertyPath: m_LocalRotation.y
      value: -0
      objectReference: {fileID: 0}
    - target: {fileID: -4216859302048453862, guid: 46aef197c33666e4b9a4106c53093326,
        type: 3}
      propertyPath: m_LocalRotation.z
      value: -0
      objectReference: {fileID: 0}
    - target: {fileID: -4216859302048453862, guid: 46aef197c33666e4b9a4106c53093326,
        type: 3}
      propertyPath: m_LocalRotation.w
      value: 1
      objectReference: {fileID: 0}
    - target: {fileID: -4216859302048453862, guid: 46aef197c33666e4b9a4106c53093326,
        type: 3}
      propertyPath: m_RootOrder
      value: 0
      objectReference: {fileID: 0}
    - target: {fileID: -4216859302048453862, guid: 46aef197c33666e4b9a4106c53093326,
        type: 3}
      propertyPath: m_LocalEulerAnglesHint.x
      value: 0
      objectReference: {fileID: 0}
    - target: {fileID: -4216859302048453862, guid: 46aef197c33666e4b9a4106c53093326,
        type: 3}
      propertyPath: m_LocalEulerAnglesHint.y
      value: 0
      objectReference: {fileID: 0}
    - target: {fileID: -4216859302048453862, guid: 46aef197c33666e4b9a4106c53093326,
        type: 3}
      propertyPath: m_LocalEulerAnglesHint.z
      value: 0
      objectReference: {fileID: 0}
    m_RemovedComponents: []
  m_SourcePrefab: {fileID: 100100000, guid: 46aef197c33666e4b9a4106c53093326, type: 3}
--- !u!1 &6966412787086125645 stripped
GameObject:
  m_CorrespondingSourceObject: {fileID: -927199367670048503, guid: 46aef197c33666e4b9a4106c53093326,
    type: 3}
  m_PrefabInstance: {fileID: 1408578381759296324}
  m_PrefabAsset: {fileID: 0}
--- !u!4 &6266462416043186270 stripped
Transform:
  m_CorrespondingSourceObject: {fileID: -4216859302048453862, guid: 46aef197c33666e4b9a4106c53093326,
    type: 3}
  m_PrefabInstance: {fileID: 1408578381759296324}
  m_PrefabAsset: {fileID: 0}
