%YAML 1.1
%TAG !u! tag:unity3d.com,2011:
--- !u!1 &9066322178612270892
GameObject:
  m_ObjectHideFlags: 0
  m_CorrespondingSourceObject: {fileID: 0}
  m_PrefabInstance: {fileID: 0}
  m_PrefabAsset: {fileID: 0}
  serializedVersion: 6
  m_Component:
  - component: {fileID: 5442971941457159487}
  - component: {fileID: 2667065449042954309}
  m_Layer: 0
  m_Name: PRE_ZeroDrone_01
  m_TagString: Untagged
  m_Icon: {fileID: 0}
  m_NavMeshLayer: 0
  m_StaticEditorFlags: 4294967295
  m_IsActive: 1
--- !u!4 &5442971941457159487
Transform:
  m_ObjectHideFlags: 0
  m_CorrespondingSourceObject: {fileID: 0}
  m_PrefabInstance: {fileID: 0}
  m_PrefabAsset: {fileID: 0}
  m_GameObject: {fileID: 9066322178612270892}
  m_LocalRotation: {x: 0, y: 0, z: 0, w: 1}
  m_LocalPosition: {x: 0, y: 0, z: 0}
  m_LocalScale: {x: 2, y: 2, z: 2}
  m_Children:
  - {fileID: 3564710841695306889}
  m_Father: {fileID: 0}
  m_RootOrder: 0
  m_LocalEulerAnglesHint: {x: 0, y: 0, z: 0}
--- !u!95 &2667065449042954309
Animator:
  serializedVersion: 3
  m_ObjectHideFlags: 0
  m_CorrespondingSourceObject: {fileID: 0}
  m_PrefabInstance: {fileID: 0}
  m_PrefabAsset: {fileID: 0}
  m_GameObject: {fileID: 9066322178612270892}
  m_Enabled: 1
  m_Avatar: {fileID: 9000000, guid: 309cb31e3fb103c45a3baf79f684e771, type: 3}
  m_Controller: {fileID: 9100000, guid: 0b7bc1720f41f1e45a06d8058a0ea40c, type: 2}
  m_CullingMode: 0
  m_UpdateMode: 0
  m_ApplyRootMotion: 0
  m_LinearVelocityBlending: 0
  m_WarningMessage: 
  m_HasTransformHierarchy: 1
  m_AllowConstantClipSamplingOptimization: 1
  m_KeepAnimatorControllerStateOnDisable: 0
--- !u!1001 &8359474005108993939
PrefabInstance:
  m_ObjectHideFlags: 0
  serializedVersion: 2
  m_Modification:
    m_TransformParent: {fileID: 5442971941457159487}
    m_Modifications:
    - target: {fileID: -927199367670048503, guid: 309cb31e3fb103c45a3baf79f684e771,
        type: 3}
      propertyPath: m_Name
      value: MOD_ZeroDrone_01
      objectReference: {fileID: 0}
    - target: {fileID: -4216859302048453862, guid: 309cb31e3fb103c45a3baf79f684e771,
        type: 3}
      propertyPath: m_LocalPosition.x
      value: 0
      objectReference: {fileID: 0}
    - target: {fileID: -4216859302048453862, guid: 309cb31e3fb103c45a3baf79f684e771,
        type: 3}
      propertyPath: m_LocalPosition.y
      value: 0
      objectReference: {fileID: 0}
    - target: {fileID: -4216859302048453862, guid: 309cb31e3fb103c45a3baf79f684e771,
        type: 3}
      propertyPath: m_LocalPosition.z
      value: 0
      objectReference: {fileID: 0}
    - target: {fileID: -4216859302048453862, guid: 309cb31e3fb103c45a3baf79f684e771,
        type: 3}
      propertyPath: m_LocalRotation.x
      value: -0
      objectReference: {fileID: 0}
    - target: {fileID: -4216859302048453862, guid: 309cb31e3fb103c45a3baf79f684e771,
        type: 3}
      propertyPath: m_LocalRotation.y
      value: -0
      objectReference: {fileID: 0}
    - target: {fileID: -4216859302048453862, guid: 309cb31e3fb103c45a3baf79f684e771,
        type: 3}
      propertyPath: m_LocalRotation.z
      value: -0
      objectReference: {fileID: 0}
    - target: {fileID: -4216859302048453862, guid: 309cb31e3fb103c45a3baf79f684e771,
        type: 3}
      propertyPath: m_LocalRotation.w
      value: 1
      objectReference: {fileID: 0}
    - target: {fileID: -4216859302048453862, guid: 309cb31e3fb103c45a3baf79f684e771,
        type: 3}
      propertyPath: m_RootOrder
      value: 0
      objectReference: {fileID: 0}
    - target: {fileID: -4216859302048453862, guid: 309cb31e3fb103c45a3baf79f684e771,
        type: 3}
      propertyPath: m_LocalEulerAnglesHint.x
      value: 0
      objectReference: {fileID: 0}
    - target: {fileID: -4216859302048453862, guid: 309cb31e3fb103c45a3baf79f684e771,
        type: 3}
      propertyPath: m_LocalEulerAnglesHint.y
      value: 0
      objectReference: {fileID: 0}
    - target: {fileID: -4216859302048453862, guid: 309cb31e3fb103c45a3baf79f684e771,
        type: 3}
      propertyPath: m_LocalEulerAnglesHint.z
      value: 0
      objectReference: {fileID: 0}
    - target: {fileID: -4216859302048453862, guid: 309cb31e3fb103c45a3baf79f684e771,
        type: 3}
      propertyPath: m_LocalScale.x
      value: 1
      objectReference: {fileID: 0}
    - target: {fileID: -4216859302048453862, guid: 309cb31e3fb103c45a3baf79f684e771,
        type: 3}
      propertyPath: m_LocalScale.y
      value: 1
      objectReference: {fileID: 0}
    - target: {fileID: -4216859302048453862, guid: 309cb31e3fb103c45a3baf79f684e771,
        type: 3}
      propertyPath: m_LocalScale.z
      value: 1
      objectReference: {fileID: 0}
    - target: {fileID: 8737116461418118836, guid: 309cb31e3fb103c45a3baf79f684e771,
        type: 3}
      propertyPath: m_Materials.Array.data[0]
      value: 
      objectReference: {fileID: 2100000, guid: 5b8975a2986e74e4eb5e49a05a8fc203, type: 2}
    - target: {fileID: -1304844345939583137, guid: 309cb31e3fb103c45a3baf79f684e771,
        type: 3}
      propertyPath: m_Materials.Array.data[0]
      value: 
      objectReference: {fileID: 2100000, guid: 5b8975a2986e74e4eb5e49a05a8fc203, type: 2}
    - target: {fileID: -2439741512303072902, guid: 309cb31e3fb103c45a3baf79f684e771,
        type: 3}
      propertyPath: m_Materials.Array.data[0]
      value: 
      objectReference: {fileID: 2100000, guid: 5b8975a2986e74e4eb5e49a05a8fc203, type: 2}
    - target: {fileID: 2434664863589063278, guid: 309cb31e3fb103c45a3baf79f684e771,
        type: 3}
      propertyPath: m_Materials.Array.data[0]
      value: 
      objectReference: {fileID: 2100000, guid: 5b8975a2986e74e4eb5e49a05a8fc203, type: 2}
    - target: {fileID: 1759455659879119541, guid: 309cb31e3fb103c45a3baf79f684e771,
        type: 3}
      propertyPath: m_Materials.Array.data[0]
      value: 
      objectReference: {fileID: 2100000, guid: 5b8975a2986e74e4eb5e49a05a8fc203, type: 2}
    m_RemovedComponents: []
  m_SourcePrefab: {fileID: 100100000, guid: 309cb31e3fb103c45a3baf79f684e771, type: 3}
--- !u!4 &3564710841695306889 stripped
Transform:
  m_CorrespondingSourceObject: {fileID: -4216859302048453862, guid: 309cb31e3fb103c45a3baf79f684e771,
    type: 3}
  m_PrefabInstance: {fileID: 8359474005108993939}
  m_PrefabAsset: {fileID: 0}
