%YAML 1.1
%TAG !u! tag:unity3d.com,2011:
--- !u!1 &7687573872369096923
GameObject:
  m_ObjectHideFlags: 0
  m_CorrespondingSourceObject: {fileID: 0}
  m_PrefabInstance: {fileID: 0}
  m_PrefabAsset: {fileID: 0}
  serializedVersion: 6
  m_Component:
  - component: {fileID: 6559003825566276606}
  m_Layer: 0
  m_Name: PRE_TunnelSideLight
  m_TagString: Untagged
  m_Icon: {fileID: 0}
  m_NavMeshLayer: 0
  m_StaticEditorFlags: 4294967295
  m_IsActive: 1
--- !u!4 &6559003825566276606
Transform:
  m_ObjectHideFlags: 0
  m_CorrespondingSourceObject: {fileID: 0}
  m_PrefabInstance: {fileID: 0}
  m_PrefabAsset: {fileID: 0}
  m_GameObject: {fileID: 7687573872369096923}
  m_LocalRotation: {x: 0, y: 0, z: 0, w: 1}
  m_LocalPosition: {x: 0, y: 0, z: 0}
  m_LocalScale: {x: 1, y: 1, z: 1}
  m_Children:
  - {fileID: 2555577886190421845}
  - {fileID: 7828016984890063598}
  m_Father: {fileID: 0}
  m_RootOrder: 0
  m_LocalEulerAnglesHint: {x: 0, y: 0, z: 0}
--- !u!1001 &459729092540245851
PrefabInstance:
  m_ObjectHideFlags: 0
  serializedVersion: 2
  m_Modification:
    m_TransformParent: {fileID: 6559003825566276606}
    m_Modifications:
    - target: {fileID: 6672262125425553318, guid: 145b75b2437f39e4a8279f05d8576550,
        type: 3}
      propertyPath: m_Name
      value: PRE_FlatLight03_01 (1)
      objectReference: {fileID: 0}
    - target: {fileID: 7693268383996747189, guid: 145b75b2437f39e4a8279f05d8576550,
        type: 3}
      propertyPath: m_LocalPosition.x
      value: 0
      objectReference: {fileID: 0}
    - target: {fileID: 7693268383996747189, guid: 145b75b2437f39e4a8279f05d8576550,
        type: 3}
      propertyPath: m_LocalPosition.y
      value: 0
      objectReference: {fileID: 0}
    - target: {fileID: 7693268383996747189, guid: 145b75b2437f39e4a8279f05d8576550,
        type: 3}
      propertyPath: m_LocalPosition.z
      value: 0
      objectReference: {fileID: 0}
    - target: {fileID: 7693268383996747189, guid: 145b75b2437f39e4a8279f05d8576550,
        type: 3}
      propertyPath: m_LocalRotation.x
      value: 0.7071068
      objectReference: {fileID: 0}
    - target: {fileID: 7693268383996747189, guid: 145b75b2437f39e4a8279f05d8576550,
        type: 3}
      propertyPath: m_LocalRotation.y
      value: 0
      objectReference: {fileID: 0}
    - target: {fileID: 7693268383996747189, guid: 145b75b2437f39e4a8279f05d8576550,
        type: 3}
      propertyPath: m_LocalRotation.z
      value: 0
      objectReference: {fileID: 0}
    - target: {fileID: 7693268383996747189, guid: 145b75b2437f39e4a8279f05d8576550,
        type: 3}
      propertyPath: m_LocalRotation.w
      value: 0.7071068
      objectReference: {fileID: 0}
    - target: {fileID: 7693268383996747189, guid: 145b75b2437f39e4a8279f05d8576550,
        type: 3}
      propertyPath: m_RootOrder
      value: 1
      objectReference: {fileID: 0}
    - target: {fileID: 7693268383996747189, guid: 145b75b2437f39e4a8279f05d8576550,
        type: 3}
      propertyPath: m_LocalEulerAnglesHint.x
      value: 90
      objectReference: {fileID: 0}
    - target: {fileID: 7693268383996747189, guid: 145b75b2437f39e4a8279f05d8576550,
        type: 3}
      propertyPath: m_LocalEulerAnglesHint.y
      value: 0
      objectReference: {fileID: 0}
    - target: {fileID: 7693268383996747189, guid: 145b75b2437f39e4a8279f05d8576550,
        type: 3}
      propertyPath: m_LocalEulerAnglesHint.z
      value: 0
      objectReference: {fileID: 0}
    m_RemovedComponents: []
  m_SourcePrefab: {fileID: 100100000, guid: 145b75b2437f39e4a8279f05d8576550, type: 3}
--- !u!4 &7828016984890063598 stripped
Transform:
  m_CorrespondingSourceObject: {fileID: 7693268383996747189, guid: 145b75b2437f39e4a8279f05d8576550,
    type: 3}
  m_PrefabInstance: {fileID: 459729092540245851}
  m_PrefabAsset: {fileID: 0}
--- !u!1001 &5311087948344056544
PrefabInstance:
  m_ObjectHideFlags: 0
  serializedVersion: 2
  m_Modification:
    m_TransformParent: {fileID: 6559003825566276606}
    m_Modifications:
    - target: {fileID: 6672262125425553318, guid: 145b75b2437f39e4a8279f05d8576550,
        type: 3}
      propertyPath: m_Name
      value: PRE_FlatLight03_01
      objectReference: {fileID: 0}
    - target: {fileID: 7693268383996747189, guid: 145b75b2437f39e4a8279f05d8576550,
        type: 3}
      propertyPath: m_LocalPosition.x
      value: 0
      objectReference: {fileID: 0}
    - target: {fileID: 7693268383996747189, guid: 145b75b2437f39e4a8279f05d8576550,
        type: 3}
      propertyPath: m_LocalPosition.y
      value: 0
      objectReference: {fileID: 0}
    - target: {fileID: 7693268383996747189, guid: 145b75b2437f39e4a8279f05d8576550,
        type: 3}
      propertyPath: m_LocalPosition.z
      value: 35
      objectReference: {fileID: 0}
    - target: {fileID: 7693268383996747189, guid: 145b75b2437f39e4a8279f05d8576550,
        type: 3}
      propertyPath: m_LocalRotation.x
      value: -0.7071068
      objectReference: {fileID: 0}
    - target: {fileID: 7693268383996747189, guid: 145b75b2437f39e4a8279f05d8576550,
        type: 3}
      propertyPath: m_LocalRotation.y
      value: 0
      objectReference: {fileID: 0}
    - target: {fileID: 7693268383996747189, guid: 145b75b2437f39e4a8279f05d8576550,
        type: 3}
      propertyPath: m_LocalRotation.z
      value: 0
      objectReference: {fileID: 0}
    - target: {fileID: 7693268383996747189, guid: 145b75b2437f39e4a8279f05d8576550,
        type: 3}
      propertyPath: m_LocalRotation.w
      value: 0.7071068
      objectReference: {fileID: 0}
    - target: {fileID: 7693268383996747189, guid: 145b75b2437f39e4a8279f05d8576550,
        type: 3}
      propertyPath: m_RootOrder
      value: 0
      objectReference: {fileID: 0}
    - target: {fileID: 7693268383996747189, guid: 145b75b2437f39e4a8279f05d8576550,
        type: 3}
      propertyPath: m_LocalEulerAnglesHint.x
      value: -90
      objectReference: {fileID: 0}
    - target: {fileID: 7693268383996747189, guid: 145b75b2437f39e4a8279f05d8576550,
        type: 3}
      propertyPath: m_LocalEulerAnglesHint.y
      value: 0
      objectReference: {fileID: 0}
    - target: {fileID: 7693268383996747189, guid: 145b75b2437f39e4a8279f05d8576550,
        type: 3}
      propertyPath: m_LocalEulerAnglesHint.z
      value: 0
      objectReference: {fileID: 0}
    m_RemovedComponents: []
  m_SourcePrefab: {fileID: 100100000, guid: 145b75b2437f39e4a8279f05d8576550, type: 3}
--- !u!4 &2555577886190421845 stripped
Transform:
  m_CorrespondingSourceObject: {fileID: 7693268383996747189, guid: 145b75b2437f39e4a8279f05d8576550,
    type: 3}
  m_PrefabInstance: {fileID: 5311087948344056544}
  m_PrefabAsset: {fileID: 0}
