%YAML 1.1
%TAG !u! tag:unity3d.com,2011:
--- !u!1 &899997735079956476
GameObject:
  m_ObjectHideFlags: 0
  m_CorrespondingSourceObject: {fileID: 0}
  m_PrefabInstance: {fileID: 0}
  m_PrefabAsset: {fileID: 0}
  serializedVersion: 6
  m_Component:
  - component: {fileID: 2293015966621182495}
  m_Layer: 0
  m_Name: PRE_CylinderLight02_02x2
  m_TagString: Untagged
  m_Icon: {fileID: 0}
  m_NavMeshLayer: 0
  m_StaticEditorFlags: 0
  m_IsActive: 1
--- !u!4 &2293015966621182495
Transform:
  m_ObjectHideFlags: 0
  m_CorrespondingSourceObject: {fileID: 0}
  m_PrefabInstance: {fileID: 0}
  m_PrefabAsset: {fileID: 0}
  m_GameObject: {fileID: 899997735079956476}
  m_LocalRotation: {x: -0, y: -0, z: -0, w: 1}
  m_LocalPosition: {x: 0, y: 0, z: 0}
  m_LocalScale: {x: 1, y: 1, z: 1}
  m_Children:
  - {fileID: 847348131424706557}
  - {fileID: 1408860760087366055}
  m_Father: {fileID: 0}
  m_RootOrder: 0
  m_LocalEulerAnglesHint: {x: 0, y: 0, z: 0}
--- !u!1001 &7387535161515445002
PrefabInstance:
  m_ObjectHideFlags: 0
  serializedVersion: 2
  m_Modification:
    m_TransformParent: {fileID: 2293015966621182495}
    m_Modifications:
    - target: {fileID: 6565394402492671716, guid: 0ed9ea7620ffef6489b80cbac05f8aae,
        type: 3}
      propertyPath: m_Name
      value: PRE_CylinderLight02_02
      objectReference: {fileID: 0}
    - target: {fileID: 7874454563703428343, guid: 0ed9ea7620ffef6489b80cbac05f8aae,
        type: 3}
      propertyPath: m_LocalPosition.x
      value: 0
      objectReference: {fileID: 0}
    - target: {fileID: 7874454563703428343, guid: 0ed9ea7620ffef6489b80cbac05f8aae,
        type: 3}
      propertyPath: m_LocalPosition.y
      value: 0
      objectReference: {fileID: 0}
    - target: {fileID: 7874454563703428343, guid: 0ed9ea7620ffef6489b80cbac05f8aae,
        type: 3}
      propertyPath: m_LocalPosition.z
      value: 0
      objectReference: {fileID: 0}
    - target: {fileID: 7874454563703428343, guid: 0ed9ea7620ffef6489b80cbac05f8aae,
        type: 3}
      propertyPath: m_LocalRotation.x
      value: 0
      objectReference: {fileID: 0}
    - target: {fileID: 7874454563703428343, guid: 0ed9ea7620ffef6489b80cbac05f8aae,
        type: 3}
      propertyPath: m_LocalRotation.y
      value: 0.7071068
      objectReference: {fileID: 0}
    - target: {fileID: 7874454563703428343, guid: 0ed9ea7620ffef6489b80cbac05f8aae,
        type: 3}
      propertyPath: m_LocalRotation.z
      value: 0
      objectReference: {fileID: 0}
    - target: {fileID: 7874454563703428343, guid: 0ed9ea7620ffef6489b80cbac05f8aae,
        type: 3}
      propertyPath: m_LocalRotation.w
      value: 0.7071068
      objectReference: {fileID: 0}
    - target: {fileID: 7874454563703428343, guid: 0ed9ea7620ffef6489b80cbac05f8aae,
        type: 3}
      propertyPath: m_RootOrder
      value: 0
      objectReference: {fileID: 0}
    - target: {fileID: 7874454563703428343, guid: 0ed9ea7620ffef6489b80cbac05f8aae,
        type: 3}
      propertyPath: m_LocalEulerAnglesHint.x
      value: 0
      objectReference: {fileID: 0}
    - target: {fileID: 7874454563703428343, guid: 0ed9ea7620ffef6489b80cbac05f8aae,
        type: 3}
      propertyPath: m_LocalEulerAnglesHint.y
      value: 90
      objectReference: {fileID: 0}
    - target: {fileID: 7874454563703428343, guid: 0ed9ea7620ffef6489b80cbac05f8aae,
        type: 3}
      propertyPath: m_LocalEulerAnglesHint.z
      value: 0
      objectReference: {fileID: 0}
    m_RemovedComponents: []
  m_SourcePrefab: {fileID: 100100000, guid: 0ed9ea7620ffef6489b80cbac05f8aae, type: 3}
--- !u!4 &847348131424706557 stripped
Transform:
  m_CorrespondingSourceObject: {fileID: 7874454563703428343, guid: 0ed9ea7620ffef6489b80cbac05f8aae,
    type: 3}
  m_PrefabInstance: {fileID: 7387535161515445002}
  m_PrefabAsset: {fileID: 0}
--- !u!1001 &9136371881883049296
PrefabInstance:
  m_ObjectHideFlags: 0
  serializedVersion: 2
  m_Modification:
    m_TransformParent: {fileID: 2293015966621182495}
    m_Modifications:
    - target: {fileID: 6565394402492671716, guid: 0ed9ea7620ffef6489b80cbac05f8aae,
        type: 3}
      propertyPath: m_Name
      value: PRE_CylinderLight02_02 (1)
      objectReference: {fileID: 0}
    - target: {fileID: 7874454563703428343, guid: 0ed9ea7620ffef6489b80cbac05f8aae,
        type: 3}
      propertyPath: m_LocalPosition.x
      value: 56
      objectReference: {fileID: 0}
    - target: {fileID: 7874454563703428343, guid: 0ed9ea7620ffef6489b80cbac05f8aae,
        type: 3}
      propertyPath: m_LocalPosition.y
      value: 0
      objectReference: {fileID: 0}
    - target: {fileID: 7874454563703428343, guid: 0ed9ea7620ffef6489b80cbac05f8aae,
        type: 3}
      propertyPath: m_LocalPosition.z
      value: 0
      objectReference: {fileID: 0}
    - target: {fileID: 7874454563703428343, guid: 0ed9ea7620ffef6489b80cbac05f8aae,
        type: 3}
      propertyPath: m_LocalRotation.x
      value: 0
      objectReference: {fileID: 0}
    - target: {fileID: 7874454563703428343, guid: 0ed9ea7620ffef6489b80cbac05f8aae,
        type: 3}
      propertyPath: m_LocalRotation.y
      value: -0.7071068
      objectReference: {fileID: 0}
    - target: {fileID: 7874454563703428343, guid: 0ed9ea7620ffef6489b80cbac05f8aae,
        type: 3}
      propertyPath: m_LocalRotation.z
      value: 0
      objectReference: {fileID: 0}
    - target: {fileID: 7874454563703428343, guid: 0ed9ea7620ffef6489b80cbac05f8aae,
        type: 3}
      propertyPath: m_LocalRotation.w
      value: 0.7071068
      objectReference: {fileID: 0}
    - target: {fileID: 7874454563703428343, guid: 0ed9ea7620ffef6489b80cbac05f8aae,
        type: 3}
      propertyPath: m_RootOrder
      value: 1
      objectReference: {fileID: 0}
    - target: {fileID: 7874454563703428343, guid: 0ed9ea7620ffef6489b80cbac05f8aae,
        type: 3}
      propertyPath: m_LocalEulerAnglesHint.x
      value: 0
      objectReference: {fileID: 0}
    - target: {fileID: 7874454563703428343, guid: 0ed9ea7620ffef6489b80cbac05f8aae,
        type: 3}
      propertyPath: m_LocalEulerAnglesHint.y
      value: -90
      objectReference: {fileID: 0}
    - target: {fileID: 7874454563703428343, guid: 0ed9ea7620ffef6489b80cbac05f8aae,
        type: 3}
      propertyPath: m_LocalEulerAnglesHint.z
      value: 0
      objectReference: {fileID: 0}
    m_RemovedComponents: []
  m_SourcePrefab: {fileID: 100100000, guid: 0ed9ea7620ffef6489b80cbac05f8aae, type: 3}
--- !u!4 &1408860760087366055 stripped
Transform:
  m_CorrespondingSourceObject: {fileID: 7874454563703428343, guid: 0ed9ea7620ffef6489b80cbac05f8aae,
    type: 3}
  m_PrefabInstance: {fileID: 9136371881883049296}
  m_PrefabAsset: {fileID: 0}
