%YAML 1.1
%TAG !u! tag:unity3d.com,2011:
--- !u!1 &5455302213230974381
GameObject:
  m_ObjectHideFlags: 0
  m_CorrespondingSourceObject: {fileID: 0}
  m_PrefabInstance: {fileID: 0}
  m_PrefabAsset: {fileID: 0}
  serializedVersion: 6
  m_Component:
  - component: {fileID: 5025225793481006685}
  m_Layer: 0
  m_Name: PRE_CubeLightBig_02x2_02
  m_TagString: Untagged
  m_Icon: {fileID: 0}
  m_NavMeshLayer: 0
  m_StaticEditorFlags: 0
  m_IsActive: 1
--- !u!4 &5025225793481006685
Transform:
  m_ObjectHideFlags: 0
  m_CorrespondingSourceObject: {fileID: 0}
  m_PrefabInstance: {fileID: 0}
  m_PrefabAsset: {fileID: 0}
  m_GameObject: {fileID: 5455302213230974381}
  m_LocalRotation: {x: 0, y: 0, z: 0, w: 1}
  m_LocalPosition: {x: 0, y: 0, z: 0}
  m_LocalScale: {x: 1, y: 1, z: 1}
  m_Children:
  - {fileID: 1005541144053038259}
  - {fileID: 2379308885364279486}
  m_Father: {fileID: 0}
  m_RootOrder: 0
  m_LocalEulerAnglesHint: {x: 0, y: 0, z: 0}
--- !u!1001 &1535074923769407104
PrefabInstance:
  m_ObjectHideFlags: 0
  serializedVersion: 2
  m_Modification:
    m_TransformParent: {fileID: 5025225793481006685}
    m_Modifications:
    - target: {fileID: 3378422158373316640, guid: 0bf1944e2f4549b41803bc3629fcff38,
        type: 3}
      propertyPath: m_Name
      value: PRE_CubeLightBig_02
      objectReference: {fileID: 0}
    - target: {fileID: 1781675945907755571, guid: 0bf1944e2f4549b41803bc3629fcff38,
        type: 3}
      propertyPath: m_LocalPosition.x
      value: 3
      objectReference: {fileID: 0}
    - target: {fileID: 1781675945907755571, guid: 0bf1944e2f4549b41803bc3629fcff38,
        type: 3}
      propertyPath: m_LocalPosition.y
      value: 0
      objectReference: {fileID: 0}
    - target: {fileID: 1781675945907755571, guid: 0bf1944e2f4549b41803bc3629fcff38,
        type: 3}
      propertyPath: m_LocalPosition.z
      value: 0
      objectReference: {fileID: 0}
    - target: {fileID: 1781675945907755571, guid: 0bf1944e2f4549b41803bc3629fcff38,
        type: 3}
      propertyPath: m_LocalRotation.x
      value: 0
      objectReference: {fileID: 0}
    - target: {fileID: 1781675945907755571, guid: 0bf1944e2f4549b41803bc3629fcff38,
        type: 3}
      propertyPath: m_LocalRotation.y
      value: 0.7071068
      objectReference: {fileID: 0}
    - target: {fileID: 1781675945907755571, guid: 0bf1944e2f4549b41803bc3629fcff38,
        type: 3}
      propertyPath: m_LocalRotation.z
      value: 0
      objectReference: {fileID: 0}
    - target: {fileID: 1781675945907755571, guid: 0bf1944e2f4549b41803bc3629fcff38,
        type: 3}
      propertyPath: m_LocalRotation.w
      value: 0.7071068
      objectReference: {fileID: 0}
    - target: {fileID: 1781675945907755571, guid: 0bf1944e2f4549b41803bc3629fcff38,
        type: 3}
      propertyPath: m_RootOrder
      value: 0
      objectReference: {fileID: 0}
    - target: {fileID: 1781675945907755571, guid: 0bf1944e2f4549b41803bc3629fcff38,
        type: 3}
      propertyPath: m_LocalEulerAnglesHint.x
      value: 0
      objectReference: {fileID: 0}
    - target: {fileID: 1781675945907755571, guid: 0bf1944e2f4549b41803bc3629fcff38,
        type: 3}
      propertyPath: m_LocalEulerAnglesHint.y
      value: 90
      objectReference: {fileID: 0}
    - target: {fileID: 1781675945907755571, guid: 0bf1944e2f4549b41803bc3629fcff38,
        type: 3}
      propertyPath: m_LocalEulerAnglesHint.z
      value: 0
      objectReference: {fileID: 0}
    m_RemovedComponents: []
  m_SourcePrefab: {fileID: 100100000, guid: 0bf1944e2f4549b41803bc3629fcff38, type: 3}
--- !u!4 &1005541144053038259 stripped
Transform:
  m_CorrespondingSourceObject: {fileID: 1781675945907755571, guid: 0bf1944e2f4549b41803bc3629fcff38,
    type: 3}
  m_PrefabInstance: {fileID: 1535074923769407104}
  m_PrefabAsset: {fileID: 0}
--- !u!1001 &4160420086020117133
PrefabInstance:
  m_ObjectHideFlags: 0
  serializedVersion: 2
  m_Modification:
    m_TransformParent: {fileID: 5025225793481006685}
    m_Modifications:
    - target: {fileID: 3378422158373316640, guid: 0bf1944e2f4549b41803bc3629fcff38,
        type: 3}
      propertyPath: m_Name
      value: PRE_CubeLightBig_02 (1)
      objectReference: {fileID: 0}
    - target: {fileID: 1781675945907755571, guid: 0bf1944e2f4549b41803bc3629fcff38,
        type: 3}
      propertyPath: m_LocalPosition.x
      value: 53
      objectReference: {fileID: 0}
    - target: {fileID: 1781675945907755571, guid: 0bf1944e2f4549b41803bc3629fcff38,
        type: 3}
      propertyPath: m_LocalPosition.y
      value: 0
      objectReference: {fileID: 0}
    - target: {fileID: 1781675945907755571, guid: 0bf1944e2f4549b41803bc3629fcff38,
        type: 3}
      propertyPath: m_LocalPosition.z
      value: 0
      objectReference: {fileID: 0}
    - target: {fileID: 1781675945907755571, guid: 0bf1944e2f4549b41803bc3629fcff38,
        type: 3}
      propertyPath: m_LocalRotation.x
      value: 0
      objectReference: {fileID: 0}
    - target: {fileID: 1781675945907755571, guid: 0bf1944e2f4549b41803bc3629fcff38,
        type: 3}
      propertyPath: m_LocalRotation.y
      value: -0.7071068
      objectReference: {fileID: 0}
    - target: {fileID: 1781675945907755571, guid: 0bf1944e2f4549b41803bc3629fcff38,
        type: 3}
      propertyPath: m_LocalRotation.z
      value: 0
      objectReference: {fileID: 0}
    - target: {fileID: 1781675945907755571, guid: 0bf1944e2f4549b41803bc3629fcff38,
        type: 3}
      propertyPath: m_LocalRotation.w
      value: 0.7071068
      objectReference: {fileID: 0}
    - target: {fileID: 1781675945907755571, guid: 0bf1944e2f4549b41803bc3629fcff38,
        type: 3}
      propertyPath: m_RootOrder
      value: 1
      objectReference: {fileID: 0}
    - target: {fileID: 1781675945907755571, guid: 0bf1944e2f4549b41803bc3629fcff38,
        type: 3}
      propertyPath: m_LocalEulerAnglesHint.x
      value: 0
      objectReference: {fileID: 0}
    - target: {fileID: 1781675945907755571, guid: 0bf1944e2f4549b41803bc3629fcff38,
        type: 3}
      propertyPath: m_LocalEulerAnglesHint.y
      value: -90
      objectReference: {fileID: 0}
    - target: {fileID: 1781675945907755571, guid: 0bf1944e2f4549b41803bc3629fcff38,
        type: 3}
      propertyPath: m_LocalEulerAnglesHint.z
      value: 0
      objectReference: {fileID: 0}
    m_RemovedComponents: []
  m_SourcePrefab: {fileID: 100100000, guid: 0bf1944e2f4549b41803bc3629fcff38, type: 3}
--- !u!4 &2379308885364279486 stripped
Transform:
  m_CorrespondingSourceObject: {fileID: 1781675945907755571, guid: 0bf1944e2f4549b41803bc3629fcff38,
    type: 3}
  m_PrefabInstance: {fileID: 4160420086020117133}
  m_PrefabAsset: {fileID: 0}
