%YAML 1.1
%TAG !u! tag:unity3d.com,2011:
--- !u!1 &6335498649844810591
GameObject:
  m_ObjectHideFlags: 0
  m_CorrespondingSourceObject: {fileID: 0}
  m_PrefabInstance: {fileID: 0}
  m_PrefabAsset: {fileID: 0}
  serializedVersion: 6
  m_Component:
  - component: {fileID: 8164227613137979878}
  m_Layer: 0
  m_Name: PRE_BuildingTest_15
  m_TagString: Untagged
  m_Icon: {fileID: 0}
  m_NavMeshLayer: 0
  m_StaticEditorFlags: 4294967295
  m_IsActive: 1
--- !u!4 &8164227613137979878
Transform:
  m_ObjectHideFlags: 0
  m_CorrespondingSourceObject: {fileID: 0}
  m_PrefabInstance: {fileID: 0}
  m_PrefabAsset: {fileID: 0}
  m_GameObject: {fileID: 6335498649844810591}
  m_LocalRotation: {x: -0, y: -0, z: -0, w: 1}
  m_LocalPosition: {x: 0, y: 0, z: 0}
  m_LocalScale: {x: 400, y: 400, z: 400}
  m_Children:
  - {fileID: 1238005558301912393}
  m_Father: {fileID: 0}
  m_RootOrder: 0
  m_LocalEulerAnglesHint: {x: 0, y: 0, z: 0}
--- !u!1001 &6076749736567817811
PrefabInstance:
  m_ObjectHideFlags: 0
  serializedVersion: 2
  m_Modification:
    m_TransformParent: {fileID: 8164227613137979878}
    m_Modifications:
    - target: {fileID: -927199367670048503, guid: c6448b43330f00f498f0df4056fec5d8,
        type: 3}
      propertyPath: m_Name
      value: MOD_BuildingTest_05
      objectReference: {fileID: 0}
    - target: {fileID: -927199367670048503, guid: c6448b43330f00f498f0df4056fec5d8,
        type: 3}
      propertyPath: m_StaticEditorFlags
      value: 4294967295
      objectReference: {fileID: 0}
    - target: {fileID: -4216859302048453862, guid: c6448b43330f00f498f0df4056fec5d8,
        type: 3}
      propertyPath: m_LocalPosition.x
      value: 0
      objectReference: {fileID: 0}
    - target: {fileID: -4216859302048453862, guid: c6448b43330f00f498f0df4056fec5d8,
        type: 3}
      propertyPath: m_LocalPosition.y
      value: 0
      objectReference: {fileID: 0}
    - target: {fileID: -4216859302048453862, guid: c6448b43330f00f498f0df4056fec5d8,
        type: 3}
      propertyPath: m_LocalPosition.z
      value: 0
      objectReference: {fileID: 0}
    - target: {fileID: -4216859302048453862, guid: c6448b43330f00f498f0df4056fec5d8,
        type: 3}
      propertyPath: m_LocalRotation.x
      value: -0
      objectReference: {fileID: 0}
    - target: {fileID: -4216859302048453862, guid: c6448b43330f00f498f0df4056fec5d8,
        type: 3}
      propertyPath: m_LocalRotation.y
      value: -0
      objectReference: {fileID: 0}
    - target: {fileID: -4216859302048453862, guid: c6448b43330f00f498f0df4056fec5d8,
        type: 3}
      propertyPath: m_LocalRotation.z
      value: -0
      objectReference: {fileID: 0}
    - target: {fileID: -4216859302048453862, guid: c6448b43330f00f498f0df4056fec5d8,
        type: 3}
      propertyPath: m_LocalRotation.w
      value: 1
      objectReference: {fileID: 0}
    - target: {fileID: -4216859302048453862, guid: c6448b43330f00f498f0df4056fec5d8,
        type: 3}
      propertyPath: m_RootOrder
      value: 0
      objectReference: {fileID: 0}
    - target: {fileID: -4216859302048453862, guid: c6448b43330f00f498f0df4056fec5d8,
        type: 3}
      propertyPath: m_LocalEulerAnglesHint.x
      value: 0
      objectReference: {fileID: 0}
    - target: {fileID: -4216859302048453862, guid: c6448b43330f00f498f0df4056fec5d8,
        type: 3}
      propertyPath: m_LocalEulerAnglesHint.y
      value: 0
      objectReference: {fileID: 0}
    - target: {fileID: -4216859302048453862, guid: c6448b43330f00f498f0df4056fec5d8,
        type: 3}
      propertyPath: m_LocalEulerAnglesHint.z
      value: 0
      objectReference: {fileID: 0}
    m_RemovedComponents: []
  m_SourcePrefab: {fileID: 100100000, guid: c6448b43330f00f498f0df4056fec5d8, type: 3}
--- !u!4 &1238005558301912393 stripped
Transform:
  m_CorrespondingSourceObject: {fileID: -4216859302048453862, guid: c6448b43330f00f498f0df4056fec5d8,
    type: 3}
  m_PrefabInstance: {fileID: 6076749736567817811}
  m_PrefabAsset: {fileID: 0}
