%YAML 1.1
%TAG !u! tag:unity3d.com,2011:
--- !u!1045 &1
EditorBuildSettings:
  m_ObjectHideFlags: 0
  serializedVersion: 2
  m_Scenes:
  - enabled: 1
    path: Assets/Scenes/SCE_MainMenu_02.unity
    guid: 22bee27efb0d5f54db81835d6ea0cf71
  - enabled: 1
    path: Assets/Scenes/SCE_Gameplay.unity
    guid: e86ae0f3ad82a0e40b177f7eb4a1aee0
  m_configObjects: {}
